y,x1,x2,x3,x4,x5
2.68,61,105,13,30.0,70.4
2.22,49,50,9,30.3,71.6
2.29,61,128,15,29.9,73.
2.16,54,81,10,29.6,70.8
3.19,68,120,13,29.6,69.1
1.97,56,92,10,30.0,70.1
2.98,68,140,16,30.2,67.7
1.96,57,86,10,30.7,56.3
3.05,62,120,16,30.5,63.8
2.48,60,114,13,30.3,69.9
2.09,57,94,12,30.1,73.0
3.27,67,145,16,30.6,70.3
2.26,52,66,10,28.8,75.5
3.20,72,159,16,30.0,72.1
2.10,53,65,10,30.5,67.5
1.79,51,56,9,29.7,65.6