Characteristic,Total,Total_with_income,Income_1_to_2499_or_loss,Income_2500_to_4999,Income_5000_to_7499,Income_7500_to_9999,Income_10000_to_12499,Income_12500_to_14999,Income_15000_to_17499,Income_17500_to_19999,Income_20000_to_22499,Income_22500_to_24999,Income_25000_to_27499,Income_27500_to_29999,Income_30000_to_32499,Income_32500_to_34999,Income_35000_to_37499,Income_37500_to_39999,Income_40000_to_42499,Income_42500_to_44999,Income_45000_to_47499,Income_47500_to_49999,Income_50000_to_52499,Income_52500_to_54999,Income_55000_to_57499,Income_57500_to_59999,Income_60000_to_62499,Income_62500_to_64999,Income_65000_to_67499,Income_67500_to_69999,Income_70000_to_72499,Income_72500_to_74999,Income_75000_to_77499,Income_77500_to_79999,Income_80000_to_82499,Income_82500_to_84999,Income_85000_to_87499,Income_87500_to_89999,Income_90000_to_92499,Income_92500_to_94999,Income_95000_to_97499,Income_97500_to_99999,Income_100000_and_over,Median_income,Median_income_standard_error,Mean_income,Mean_income_standard_error,Gini_ratio,Gini_ratio_standard_error
Totals,30566,30566,84,24,92,91,319,268,664,589,1098,692,1368,742,1868,736,1581,822,1887,606,1326,735,1586,567,1023,452,1084,351,791,384,711,360,663,344,618,238,442,178,474,155,301,126,4130,48959,518,63152,646,0,0
Northeast,5902,5902,10,11,16,19,36,34,100,82,192,69,266,147,338,126,307,154,302,103,289,104,286,92,199,104,221,94,181,63,152,86,154,75,131,53,83,36,100,15,71,28,970,52149,740,70799,1895,0,0
Midwest,8284,8284,24,6,29,39,80,84,182,168,318,193,392,251,516,250,452,258,531,186,361,231,404,187,299,108,265,89,199,129,182,108,143,87,159,57,95,54,113,49,84,41,878,46262,494,57159,899,0,0
South,10721,10721,40,1,24,16,147,107,274,256,422,294,474,220,705,266,554,291,716,219,451,251,594,202,353,117,377,119,292,125,253,99,233,100,172,75,162,57,144,65,81,35,1338,46842,512,60832,1057,0,0
West,5659,5659,10,6,24,17,56,44,107,82,165,136,236,123,309,93,267,118,338,97,226,150,303,85,172,122,222,48,119,67,123,67,133,82,155,52,103,32,116,25,65,22,944,51868,497,68348,1223,0,0
Total_15_years_old_and_over,30566,30566,84,24,92,91,319,268,664,589,1098,692,1368,742,1868,736,1581,822,1887,606,1326,735,1586,567,1023,452,1084,351,791,384,711,360,663,344,618,238,442,178,474,155,301,126,4130,48959,518,63152,646,0,0
Under_65_years,28938,28938,79,23,92,87,309,262,634,579,1062,683,1309,730,1822,691,1525,763,1798,580,1277,691,1522,539,979,388,1035,325,752,346,668,305,631,309,576,215,414,156,439,146,290,113,3792,48088,516,62164,631,0,0
15_to_24_years,1922,1922,22,1,19,17,44,57,142,101,192,129,189,110,194,49,157,90,89,35,33,29,50,14,43,1,37,4,1,5,21,2,5,2,4,1,2,0,8,0,0,0,24,28610,761,32294,1168,0,0
25_to_34_years,6832,6832,13,1,15,17,88,46,140,145,308,143,409,179,553,208,380,209,512,129,313,189,390,141,295,73,251,81,168,74,140,54,106,62,113,38,74,31,89,17,83,6,550,43501,1243,54362,1481,0,0
25_to_29_years,3570,3570,9,0,5,8,59,29,71,77,198,82,227,102,356,129,211,117,265,62,164,98,199,77,171,30,127,33,86,43,56,14,37,22,37,24,42,13,36,4,39,1,212,40991,551,49758,1735,0,0
30_to_34_years,3262,3262,4,0,10,9,29,16,69,69,110,60,182,77,198,79,168,91,247,67,148,92,191,64,125,43,124,48,82,31,85,40,69,40,76,14,32,18,53,12,45,5,338,47439,944,59401,2169,0,0
35_to_44_years,6262,6262,18,6,16,20,60,35,92,85,154,94,227,122,315,117,324,170,377,139,306,144,320,131,240,85,249,91,207,85,124,83,175,58,157,64,110,44,111,33,68,34,969,52421,883,68568,1435,0,0
35_to_39_years,3214,3214,9,2,8,7,22,22,32,39,92,54,132,54,149,62,179,111,200,84,169,55,171,62,134,24,135,50,97,39,66,36,95,21,95,31,58,17,64,16,37,8,479,51850,695,67611,2268,0,0
40_to_44_years,3047,3047,9,4,8,13,38,14,59,46,63,40,95,68,166,55,145,60,177,55,137,89,149,69,106,61,114,41,110,46,58,47,80,37,63,33,52,28,47,18,30,26,491,53742,1464,69578,1714,0,0
45_to_54_years,7378,7378,11,12,21,16,73,78,123,113,219,138,272,171,409,164,373,141,412,156,322,132,407,137,237,106,268,72,204,103,206,84,191,109,191,59,102,52,141,70,55,36,1192,52054,408,67576,966,0,0
45_to_49_years,3499,3499,3,8,10,4,30,36,49,27,102,61,131,110,209,80,213,66,185,73,154,59,187,77,104,44,131,48,93,43,113,41,90,48,84,30,46,23,88,24,28,24,521,51842,603,64932,1263,0,0
50_to_54_years,3879,3879,8,4,11,12,43,42,73,85,117,76,141,61,200,83,160,76,228,83,167,73,220,59,133,62,137,24,111,60,93,44,101,60,106,29,56,29,53,46,27,13,671,52233,898,69961,1740,0,0
55_to_64_years,6543,6543,15,5,21,17,44,46,138,136,189,180,210,147,350,155,292,154,408,121,303,197,355,117,164,123,229,76,172,79,177,82,155,77,111,53,125,29,89,25,84,37,1056,51010,459,66855,1384,0,0
55_to_59_years,3726,3726,10,4,8,11,30,29,72,81,98,109,127,70,220,100,167,91,253,65,150,103,232,72,81,73,125,35,87,53,100,50,84,54,72,35,86,13,57,14,46,21,537,50682,582,65223,1954,0,0
60_to_64_years,2817,2817,5,1,12,6,14,16,66,54,92,71,83,77,130,55,124,62,155,56,153,93,124,45,83,50,103,41,85,27,77,32,71,24,39,18,39,16,32,11,38,15,519,51625,863,69014,2119,0,0
65_years_and_over,1629,1629,5,0,0,3,10,6,29,10,36,10,59,12,46,44,55,58,89,26,49,44,65,28,44,64,49,26,38,38,43,55,33,35,42,23,29,22,35,9,10,13,338,61141,1976,80715,4132,0,0
65_to_74_years,1414,1414,5,0,0,1,8,3,27,9,29,6,54,8,36,34,49,52,73,24,37,40,59,27,44,55,43,24,36,35,34,43,29,31,42,19,29,22,35,5,7,13,288,61550,2312,78420,3380,0,0
65_to_69_years,1044,1044,4,0,0,1,5,3,19,2,18,3,44,6,21,29,49,39,53,16,37,32,40,20,27,42,34,19,31,24,28,22,17,22,35,15,18,13,24,0,7,10,212,60854,2304,76959,3973,0,0
70_to_74_years,370,370,0,0,0,0,3,0,8,7,11,4,10,2,15,4,0,12,20,8,1,8,19,7,17,13,9,5,4,11,6,20,12,8,7,4,10,9,10,5,0,3,76,65478,6038,82543,6373,0,0
75_years_and_over,215,215,0,0,0,2,2,3,2,1,7,3,5,3,10,10,6,7,16,2,12,4,5,1,0,9,6,1,3,3,9,12,4,5,0,4,0,0,0,4,3,0,50,58907,8415,95841,20700,1,0
Mean_age,44,44,39,48,41,41,40,41,41,41,40,42,40,41,41,44,42,42,44,44,45,45,45,44,43,50,45,45,46,47,47,50,47,48,46,47,47,48,46,49,45,51,49,(B),(B),(B),(B),(B),(B)
Householder,9523,9523,24,12,30,34,99,77,188,191,291,201,397,194,566,216,474,232,521,180,362,212,446,225,350,168,373,147,281,129,249,116,233,110,188,77,148,85,130,56,75,40,1394,51454,456,65076,1040,0,0
Spouse_of_householder,10486,10486,28,3,41,15,89,95,125,147,285,208,394,203,552,263,521,282,658,247,493,257,598,191,368,157,392,99,313,124,279,137,246,87,242,86,164,64,202,72,105,46,1609,51407,307,66654,863,0,0
Child_of_householder,1739,1739,16,4,18,7,46,40,72,106,157,63,177,95,175,42,86,81,84,16,72,32,73,17,43,10,44,7,18,6,23,4,10,7,9,3,9,0,18,0,3,2,43,30971,488,35971,884,0,0
Other_relative_of_householder,805,805,5,1,1,2,10,6,27,28,78,20,40,20,80,25,85,23,49,18,40,16,45,7,20,4,30,2,17,9,11,6,4,2,3,7,0,0,18,0,0,0,48,36749,824,43441,1555,0,0
Nonrelatives,8013,8013,12,4,2,32,75,50,252,116,286,200,360,230,494,189,414,203,575,145,358,219,424,126,242,113,245,96,161,116,148,98,170,138,176,66,122,29,105,27,118,38,1037,47586,759,64163,1719,0,0
Total_25_years_and_over,28644,28644,62,23,73,73,275,211,522,488,906,564,1178,631,1674,687,1424,732,1799,570,1293,707,1537,553,980,451,1046,347,790,379,690,358,659,342,614,236,440,178,465,155,300,126,4106,50700,235,65223,682,0,0
Less_than_9th_grade,90,90,3,0,6,0,2,0,9,4,9,2,5,9,5,3,3,2,5,7,0,1,4,1,0,2,0,0,5,1,2,0,0,0,2,0,0,0,0,0,0,0,0,28892,1971,31902,2943,0,0
No_high_school_diploma,483,483,0,0,5,3,7,17,42,28,44,26,47,13,40,15,25,24,33,7,22,2,22,9,10,4,7,3,4,5,0,0,1,0,0,0,2,0,3,0,0,0,12,30542,1391,34311,1500,0,0
High_school_graduate,5675,5675,23,2,27,32,109,97,209,193,352,213,373,209,477,225,371,210,451,118,290,156,282,88,182,89,136,28,102,44,68,73,40,14,51,17,42,9,34,6,25,7,202,37002,416,43353,922,0,0
Some_college_no_degree,4141,4141,10,2,6,14,60,37,106,102,173,127,255,139,361,154,269,133,317,97,163,77,212,104,104,72,152,34,127,51,82,35,70,42,51,22,41,22,44,14,19,4,237,40968,356,49292,1274,0,0
Associate_degree,3767,3767,8,7,12,6,35,30,70,90,142,83,193,115,271,118,243,156,274,106,185,93,210,67,131,67,133,54,110,64,63,35,79,61,58,29,41,13,44,11,16,14,229,43194,1161,51779,1070,0,0
Bachelors_degree_or_more,14488,14488,18,12,17,18,62,30,87,70,186,113,305,147,520,172,513,207,719,236,633,377,807,283,554,217,618,229,442,213,476,215,469,224,451,169,314,135,341,124,240,102,3425,65545,584,83076,1115,0,0
Bachelors_degree,8798,8798,10,6,8,16,55,18,73,49,149,92,244,130,416,133,373,156,523,173,428,257,538,192,358,128,387,138,267,115,260,122,245,126,232,95,157,64,194,79,118,45,1628,57570,1181,73159,1254,0,0
Masters_degree,4426,4426,5,6,9,1,6,8,8,14,29,12,55,17,87,29,114,49,166,56,182,109,229,90,174,85,200,77,136,84,195,87,177,79,185,56,120,70,114,35,91,46,1135,72254,980,90308,2483,0,0
Professional_degree,556,556,1,0,0,2,0,0,5,2,2,9,0,0,6,3,11,2,14,1,7,4,20,1,17,0,10,11,18,4,12,3,24,3,15,7,15,0,6,0,13,5,304,110703,11453,139150,6750,0,0
Doctorate_degree,708,708,2,0,1,0,0,4,1,4,5,0,6,0,11,7,15,0,16,7,16,7,20,0,5,2,21,3,21,10,8,3,24,17,19,11,23,1,27,10,18,5,358,100254,3876,117040,5672,0,0
Owner_Occupied,22931,22931,61,18,69,52,227,152,365,362,722,458,883,534,1284,527,1101,579,1336,436,1030,553,1218,448,814,365,855,278,656,297,587,317,532,278,496,209,354,146,393,132,235,112,3460,51466,257,66530,721,0,0
Renter_Occupied,7389,7389,22,5,22,34,87,112,279,218,358,220,475,197,560,204,462,233,550,161,284,182,357,119,207,85,221,73,130,85,124,43,120,66,121,28,87,27,81,23,65,14,648,40937,319,53214,1379,0,0
Occupier_Paid_No_Cash_Rent,245,245,1,0,1,5,5,4,19,9,18,14,10,10,24,4,18,10,1,9,12,0,12,0,2,3,8,0,5,2,0,0,11,0,1,0,1,5,0,0,1,0,22,34638,3532,46825,5119,0,0
